^C:\USERS\CORSAIN\DESKTOP\CSC382-PROJECT2\CSC382-PROJECT2\DEBUG\LINKLIST.OBJ|C:\USERS\CORSAIN\DESKTOP\CSC382-PROJECT2\CSC382-PROJECT2\DEBUG\NODE.OBJ|C:\USERS\CORSAIN\DESKTOP\CSC382-PROJECT2\CSC382-PROJECT2\DEBUG\SOURCE1.OBJ
C:\USERS\CORSAIN\DESKTOP\CSC382-PROJECT2\DEBUG\CSC382-PROJECT2.ILK
C:\USERS\CORSAIN\DESKTOP\CSC382-PROJECT2\DEBUG\CSC382-PROJECT2.EXE
C:\USERS\CORSAIN\DESKTOP\CSC382-PROJECT2\DEBUG\CSC382-PROJECT2.PDB
